Wrangling camera trap images with recocam • recocam
…
To start, diagnose why there are different numbers of columns. Data exploration functions like head() and tibble::glimpse() can be very useful for this. Use these to see what columns each of your data frames share, and which ones they don’t. To merge them together easily, you want to make sure that both data frames have exactly the same columns.

So, from head() and glimpse() we know that are data frame has 16 columns. But what if we want to merge it with one that has 15 columns, and we’ve identified that the data frame we want to merge with does not have a “comments” column? We can deal with this very easily using dplyr::select().

test_raw2 <- test_raw %>%
  dplyr::select(!comments) # by writing "!comments", we are actually selecting all columns except for comments

test_raw2

## # A tibble: 30 x 15
##    trip  site  treatment camera_no species_1 no_of_species_1 species_2
##    <chr> <chr> <chr>     <chr>     <chr>     <chr>           <chr>    
##  1 Apr.… Norr… Fox and … R17       cat       1               <NA>     
##  2 Apr.… Norr… Fox and … R17       <NA>      <NA>            <NA>     
##  3 Apr.… Norr… Fox and … R17       <NA>      <NA>            <NA>     
##  4 Apr.… Norr… Fox and … R17       <NA>      <NA>            <NA>     
##  5 Apr.… Norr… Fox and … R17       <NA>      <NA>            <NA>     
##  6 Apr.… Norr… Fox and … R17       <NA>      <NA>            <NA>     
##  7 Apr.… Norr… Fox and … R17       <NA>      <NA>            <NA>     
##  8 Apr.… Norr… Fox and … R17       <NA>      <NA>            <NA>     
##  9 Apr.… Norr… Fox and … R17       <NA>      <NA>            <NA>     
## 10 Apr.… Norr… Fox and … R17       cat       1               <NA>     
## # … with 20 more rows, and 8 more variables: no_of_species_2 <chr>,
## #   moon_phase_number <chr>, site_code <chr>, source_file <chr>,
## #   file_name <chr>, date_time_original <chr>, file_size <chr>,
## #   process_image <chr>
…
